  
 Naval Signal 
 From - R.A.  
 To - Berrima for Brigadier  
 Date - 12 9 4 
 Time - 9.20 
 I have reported progress to date. Have you any dispatch you would like to send 
 (2112) 
   
 [Annotated: Brigadier] 
