 [Page 10] 
 12/7/17 Acheux for fruit 
 15/7/17 Beassart. 
 16/7/17 Rubempre 
 18/7/17 Corbie 
 21/7/17 Herissart. 
 28/7/17 Edgehill CCS via Contay. 
 30/7/17 Rouen No 5 Hospital. 
 11/8/17 No 2 Con Camp went into town on 13/15/ &amp; 18 
 30/8/17 Harfleur 
 23/9/17 L e Havre 
 19/2/18 Aveluy 
 25/2/18 Merckeghem via St Pol &amp; Bethune. 
 17/3/18 Watten en route for Blighty 
 17/3/18 Boulogne 
 19/3/18 England (Folkestone &amp; London). 
 27/3/18 Birmingham &amp; old Hill 