[["1-per", "11-Christmas", 309],
 ["1-per", "12-Education", 284],
 ["1-per", "13-Food", 1001],
 ["1-per", "14-Letters & family", 1001],
 ["1-per", "15-Money & shopping", 519],
 ["1-per", "16-Music and party", 733],
 ["1-per", "17-Personal care & clothes", 977],
 ["1-per", "18-Poetry & spirit", 1001],
 ["1-per", "19-Weather", 1001],
 ["1-per", "110-Women", 292],
 ["2-war", "21-Air", 129],
 ["2-war", "22-Combat", 1001],
 ["2-war", "23-Context", 802],
 ["2-war", "24-Front line", 995],
 ["2-war", "25-Health", 1001],
 ["3-mil", "31-Camping", 1001],
 ["3-mil", "32-General", 1001],
 ["3-mil", "33-Horses", 508],
 ["3-mil", "34-Lists & reports", 1001],
 ["3-mil", "35-POW", 262],
 ["3-mil", "36-Sports", 521],
 ["3-mil", "37-Technical", 402],
 ["4-tra", "41-Middle East", 1001],
 ["4-tra", "42-Over the sea", 1001],
 ["4-tra", "43-Roads & railways", 1001],
 ["5-tou", "51-City life", 1001],
 ["5-tou", "52-Countryside", 1001],
 ["5-tou", "53-Egipt", 605],
 ["5-tou", "54-France", 405],
 ["5-tou", "55-UK", 963]]
