 a6578120.html 
 1055 
 MONDAY, APRIL 14, 1919. 
 55 
 Fine & hot. On deck most of the 
 day playing games & reading. 
 We got payed in afternoon & 
 I got all packed up ready to 
 go ashore tomorrow. 
 Days run 316 miles 