 a6578115.html 
 1050 
 WEDNESDAY, APRIL 9, 1919. 
 40 
 Fine & warm. On deck reading 
 & playing games all day & 
 yarning to the Sisters after 
 dinner. We passed several 
 boats today. 
 Days run 316 miles 