 [Page 2] 
 CAME TO &ndash; Date &ndash; LEFT &ndash; Date Moascar &ndash; 4.8.16 &ndash; Moascar &ndash; 25.4.17 Khan Yunis     - 26.4.17 &ndash; KhanYunis    - 20.5.17 Raffa &ndash; 20.5.17 &ndash; Raffa &ndash; 1.6.17 Beni Selah &ndash; 1.6.17 &ndash; Beni Salah &ndash; 1.8.17 Gamli &ndash; 1.8.17 &ndash; Gamli &ndash; 18.8.17 El Marakeb &ndash; 18.8.17 &ndash; El Marakeb &ndash; 18.9.17 Fukhari &ndash; 18.9.17 &ndash; Fukhari &ndash; 3.10.17 Abbassia &ndash; 24.10.17 &ndash; Abbassia -26.10.17 Essani &ndash; 26.10.17 &ndash; Essani &ndash; 28.10.17 Kallassa &ndash; 28.10.17 &ndash; Kallassa &ndash; 29.10.17 Aslug &ndash; 29.10.17 &ndash; Aslug &ndash; 30.10.17 Derea &ndash; 2.11.17 &ndash; Derea &ndash; 3.11.17 Sherea &ndash; 5.11.17 &ndash; Sherea &ndash; 5.11.17 Jemaar &ndash; 5.11.17 &ndash; Jemaar &ndash; 6.11.17 Ocherden Rasseema &ndash; 10.11.17 &ndash; Jemaar &ndash; 10.11.17 Ashdod &ndash; 11.11.17 &ndash; Ashdod &ndash; 12.11.17 Beach&ndash; 12.11.17 &ndash; Beach &ndash; 13.11.17 Jebna &ndash; 13.11.17 &ndash; Jebna &ndash; 13.11.17 Deiran &ndash; 14.11.17 
 Diary &amp; Impressions Abroad from July 8th 1916.  Date of Sailing from Sydney for the Front. 
 Leslie Morris Surrey Ramsay &amp; Wattle Sts Haberfield 