 [Page 169] 
 November 
 Rejoined boys at Sarpi Nov 12th 1915 Left Hospital                    "    27 1916 
 December 
 Landed Egypt Dec 4th 1914 Evacuated Anzac Dec 19 1915 Arrived Egypt from Gallip Dec 29th 1915 December 9th Captured El Arish         "         14        "        Maghaba 