<p>a5763010.html</p>
<p>V</p>
<table border="1" cellpadding="1" cellspacing="1" style="width: 100%;">
<tbody>
<tr>
<td>&nbsp;</td>
<td><u>THE WAR</u>.</td>
<td>&nbsp;</td>
</tr>
<tr>
<td>Sept. 18th 1917.</td>
<td>Divisional Rest near Wizernes.</td>
<td>
<p>115</p>
<p>.......</p>
</td>
</tr>
<tr>
<td>Sept. 28th 1917.</td>
<td>
<p>Weekend Leave from Le Havre</p>
<p>to Rouen by Car.</p>
</td>
<td>
<p>118</p>
<p>.......</p>
</td>
</tr>
<tr>
<td>Nov. 12th 1917.</td>
<td>
<p>Short Trips; Rouen, Trouville,</p>
<p>Etretat, Octeville.</p>
</td>
<td>
<p>122.</p>
<p>.......</p>
</td>
</tr>
<tr>
<td>December 16.1917.</td>
<td>
<p>Froom Red Lodge; Hyde Park</p>
<p>Corner, Dugout and Trench</p>
<p>Life and Raids.</p>
</td>
<td>
<p>125.</p>
<p>.......</p>
</td>
</tr>
<tr>
<td>During 1917..</td>
<td>
<p>An undated Fragment -</p>
<p>&quot;Good Australians are We.&quot;</p>
</td>
<td>
<p>129.</p>
<p>.......</p>
</td>
</tr>
<tr>
<td>&nbsp;</td>
<td><u>1918.</u></td>
<td>&nbsp;</td>
</tr>
<tr>
<td>February 3.1918.</td>
<td>
<p>Warneton, Belgium, In the</p>
<p>Line.</p>
</td>
<td>
<p>131.</p>
<p>.......</p>
</td>
</tr>
<tr>
<td>February - 1918.</td>
<td>
<p>General Jackson writes for</p>
<p>my Services as a Raider.</p>
</td>
<td>
<p>134</p>
<p>.......</p>
</td>
</tr>
<tr>
<td>March 12th 1918.</td>
<td>
<p>On Liaison with the 2nd South</p>
<p>Wales Borderers for Raiding</p>
<p>and Scouting.</p>
</td>
<td>
<p>135.</p>
<p>.......</p>
</td>
</tr>
<tr>
<td>April 15th 1918.</td>
<td>
<p>At Les Seninghem. Divisional</p>
<p>Rest and moving to rally 5th</p>
<p>Army Sector.</p>
</td>
<td>
<p>138</p>
<p>.......</p>
</td>
</tr>
<tr>
<td>May 16th - 1918.</td>
<td>
<p>Stopping the Bosche on the</p>
<p>5th Army Sector at Mericourt-</p>
<p>Ribeno<s>u</s>nt.</p>
</td>
<td>
<p>141</p>
<p>........</p>
</td>
</tr>
<tr>
<td>May 18th - 1918.</td>
<td>
<p>From Allonville Somme. a tent</p>
<p>in a wood, night bombing by</p>
<p>Planes.</p>
</td>
<td>
<p>144.</p>
<p>.......</p>
</td>
</tr>
<tr>
<td>June&nbsp; (about) &quot;</td>
<td>
<p>Before Villers-Brettoneux and</p>
<p>the International Post.</p>
</td>
<td>
<p>147</p>
<p>.......</p>
</td>
</tr>
<tr>
<td>October 26.1918.</td>
<td>
<p>Blighty Leave - the A.I.F.</p>
<p>Hospitals, London, Edinburgh.</p>
</td>
<td>
<p>152.</p>
<p>........</p>
</td>
</tr>
<tr>
<td>Nov. 9th - 1918.</td>
<td>
<p>From 4th Army Coy Commanders&#39;</p>
<p>School, includes Armistice Day</p>
<p>at School and at Le Treport.</p>
</td>
<td>
<p>155</p>
<p>.......</p>
</td>
</tr>
<tr>
<td><u>1919</u>.</td>
<td>&nbsp;</td>
<td>&nbsp;</td>
</tr>
<tr>
<td>January 4th 1919.</td>
<td>
<p>From Vismes-au-val, while</p>
<p>awaiting Repatriation Various</p>
<p>Amenities.</p>
</td>
<td>
<p>158</p>
<p>.......</p>
</td>
</tr>
</tbody>
</table>
<p>&nbsp;</p>
