  
 OFFICERS WITH SQUADRON 
 DURING PERIOD OF 
 1st March 1918  to  30th June  1918 
 A.F.C. 
 Major Williams, D.S.O. Capt. S.W. Addison - Capt. R.M. Smith, M.C. Capt.  D.W. Rutherford, - T T/Capt. R.M. Austin M.C. 
 Lieut. L.W. Rogers - Lieut. L.M. Potts Lieut. J.D.S. Potts - Lieut.  H.L. Fraser Lieut. E.L. Spragg - Lieut. J.H. Butler Lieut. T. Taylor - Lieut. C. le B. Brown Lieut. A.J. Morgan - Lieut. E. P. Kenny Lieut. C. G. Cameron - Lieut. L.B. Garson Lieut. L.H. Rudd - Lieut. A.R. Brown Lieut. A.V. Tonkin - Lieut. G.C. Peters Lieut. C.N. Watt - Lieut. L.E. Taplin Lieut. E.S. Headlam - Lieut. F.W.F. Lukie Lieut. J.K. Curwen-Walker - Lieut. E.C. Stooke, D.C.M. Lieut. W.A. Kirk - Lieut. E.A. Mustard Lieut. G. Finlay - Lieut. O.M. Lee Lieut. F. Hancock - Lieut. H. Fysh Lieut. L.W. Sutherland, M.C., D.C.M. - Lieut. V.F. Turner Lieut. P.A. McBain 
 2/Lieut. P.G. Hartley M.M. - 2/Lieut. R.S. Brain 2/Lieut. F.W. Haig - 2/Lieut. P.J. Sims 2/Lieut. J. Keane - 2/Lieut. R. Burton 2/Lieut. D.R. Dowling - 2/Lieut. C.S. Paul 2/Lieut. H.A. Blake - 2/Lieut. A.A. Poole 2/Lieut. R.S. Adair - 2/Lieut. H.S.R. Maughan 2/Lieut. J.M. Walker - 2/Lieut. S.W. Robinson 2/Lieut. J.T.T. Stevens - 2/Lieut. G.V. Oxenham 2/Lieut. G.W. Sheppard - 2/Lieut. W.C. Thompson 2/Lieut. P.J. McGinness, D.C.M. - 2/Lieut. S.A. Nunan 2/Lieut. A.W. Murphy - 2/Lieut. F.J. Parkinson 
 ATTACHED. Lieut. H.B. Fletcher - 12th A.L.H. Rgt. -  25.10.1917 Lieut. C.J. Vyner - 4th Coy. I.C.C. - 25.10.1917 Lieut. W.F. Cashman - 1st Bn. I.C.C. - 25.10.1917 Lieut. G. Daly - 14th Coy. I.C.C. - 25.10.1917 Lieut. E.B.S. Beaton - 11th A.L.H. Rgt. - 26.10.1917 Lieut. R.T. Challinor - 2nd. A.L.H. Rgt. - 26.9.1917 Lieut. J.H. Traill - 4th Sig. Troop - 20.10.1917 Lieut. A.W. Farquar - 1st. A.L.H. Rgt. - 21.1.1918 Lieut. L.H. Smith - 1st A.L.H. Rgt. - 21.1.1918 Lieut. L.P. Kreig - 11th A.L.H. Rgt. - 22.1.1918 Lieut. E.A. Mulford, D.C.M. - 12th A.L.H. Rgt. - 22.1.1918 Lieut. W.J.A. Weir - 6th A.L.H. Rgt. - 21.1.1918 Lieut. H.A. Letch M.C. - 2nd A.L.H. Rgt.  -  22.1.1918 Lieut. F.C. Hawley - 4th Bn. I.C.C. - 23.1.1918 Lieut. R.A. Camm - 4th Bn. I.C.C. - 23.1.1918 Lieut. Lees - Ist Bn. I.C.C - 19.4.1918 Lieut. F.C. Conrick - 3rd Bn. I.C.C. - 19.4.1918 Lieut. A.V. McCann - 4th A.L.H. Rgt. - 19.4.1918 Lieut. W.H. Lilly - 3rd A.M.G.S. - 27.4.1918 2/Lieut. J. McElligot - 11th A.L.H.  Rgt. - 24.3.1918 