  
 STATISTICS. 
 1.3.1918 to 30.6.1918 
 March     - April - May - June - Total Number of hours flown - 632 - 594 - 445 - 716 - 2387 Number of Strategical reconnaissances - 48 - 47 - 29 - 42 - 166 Number of Photographic - 23 - 23- 16 - 16 -78 Number of plates exposed - 518 - 609 - 367 - 400 - 1894 Number of Prints produced - 4560 - 5397 - 4819 - 4647 - 19423 Number of Bomb raids - 17 - - -  4 - 5 - 26 Weight of Bombs dropped - Lbs.7598 - - - 840 - 830 - 9268 Number of attacks of troops on the ground. - 9 - -1 - 8 - 16 - 34 Number of rounds fired - 3500 - 420 - 3390 - 43000 - 50310 Number of enemy aircraft patrols - 5 - 27 - 32 - 133 - 197 