<p>a9585001.html</p>
<p>page 1 Envelope</p>
<p>Passed Censor No. 3223</p>
<p>Addressed to Miss N.B Pines</p>
<p>Red East</p>
<p>Murray Rd</p>
<p>Cheltenham</p>
<p>Sydney&nbsp;</p>
<p>NSW</p>
<p>&nbsp;</p>