  
 Capt. Carey of U.S.S. Co's "Moana" died about 2 yrs. ago, 1916. 
 19269 L. A.A.M.C. July 1917 General Reinforcements A.I.F. 6/7/18 
 1/12/17 
  Pte. A. Thorpe 41090, 4th Worcesters.  
 24 G.H. Miss Todd, V.A.D. Sister Lloyd-Edwards 
 19269 Pte. C.F. Lindsell A.A.M.C. Details Parkhouse 
 1/2/18 
 Sister Wright Warden House Hosp. Deal Kent 
 1/1/18 