<p>a6680079.html</p>
<p>July &nbsp; 1918</p>
<p>28 SUN &nbsp;Fine day. Dull.</p>
<p>Sgt Savage paid</p>
<p>us a visit. No Amm. Rec.</p>
<p>letter from Amy. Mc.</p>
<p>Very quiet day &amp; night.</p>
<p>29 MON &nbsp;Fine day. warm.</p>
<p>Amm. going up. Very quiet</p>
<p>day &amp; night Swim. &nbsp;<sup>X</sup><s>SM</s></p>
<p><s>went to Boulogne for rest</s></p>
<p><sup>X</sup>&nbsp;30 TUES &nbsp;Fine day - warm &nbsp;Amm</p>
<p>going up. quiet. S.M. went</p>
<p>away. Very quiet day</p>
<p>&amp; night.</p>
<p>31 WED &nbsp;Fine day. Sgts&nbsp;<s>Dowe</s>&nbsp;Smelley</p>
<p>&amp; Banner. went away. [Limbus ?]</p>
<p>returned. Rumour re moving</p>
<p>out tomorrow. Very Quiet.</p>
<p>day &amp; night</p>