  
 S.S. "Jumna" 2600 reg.    London. Mercantile S. Co. owners Spanish ports to Burma via Calcutta with full cargo of salt. Capt.          S. Wickman     Chf. Engr. Chf Officer      Moncrieff          2nd     " 2nd      "     Stevens          3rd     " 3rd      "     E.A. Buckingham'     4th     "   A.T. Fraser Cadets Pearce and J. Loe.   30 all told. 
 "Wordsworth"  2202 reg. Glover Bros. owners Bassein - London with 6000 tons rice. Capt. J. Shields          Chf Engr. Chf Officer               2nd J. James 2nd     "  Robinson     3rd Forsythe 3rd     "   A. Bowman          4th B. Winton. Cadets E.C. Cuthill and Williams.   31 all told 
 "Dee"  4-masted barque. Mauritius to Bunbury W.A. in ballast. Capt. J.B. Rugg Chf. Officer.   Martin crew creoles, French, and niggers.   20 all told. 
