 [Page 189] 
 From- To 
 Pont a'Achelles- 1-1-18- 31-1-18 outersteen- 31-1-18- 3-2-18 Champagne- 3-2-18- 4.2.18 Remilly Wilhim- 4-2-18- 5-2-18 Fauxalles- 5-2-18- 22-2-18 Blighty Leave- 22-2-18- 12-3-18 Calais- 12.3-18- 13-3-18 Pont d'Achelles- 13-3-18- 1-4-18 Godewaesvelde- 1-4-18- 3.4.18 Cardonette- 3.4.18- 4.4.18  Bussy &amp;  Blangy Tronville- 4-4-18- 10.4.18 Boves (nr Amiens).- 10.4.18- 19.4.18 Pont Noyelles- 19.4.18- 20.4.18 Beaucourt- 20.4.18- 21.4.18 Contay- 21.4.18- 2.5.18 Rivery- 2.5.18- 10.5.18 Pont Noyelles- 10.5.18- 15.6.18 
