 a5763077.html 
 Sydney Young Men&#39;s Christian 
 &nbsp;&nbsp;&nbsp;&nbsp;&nbsp;&nbsp;&nbsp;&nbsp;&nbsp;&nbsp;&nbsp;&nbsp;&nbsp;&nbsp;&nbsp; ____________ 
 The Presid 
 &nbsp; 
  [Part view of card in envelope]  
