  
 Letter to write Mat - 19/12/16, 20/17, 14.3, 20.3 Mother & Father - 30/12/16, 20/17, 14.3 Harry D. - 28.12.16 Ron - 21.12.16, 5.37 Geoff - 1.1.17, 20/17 Betty - 20/17 Elsie - 19.12.16, 20/17 Const. - 20/17 Val - 17.12.16, Feb. Jake - 17.12.16, 20/17 Aunty G. - 30.12.16 Joyce - 31.12.16 Fred - 31.12.16 Jimmy Joe - 31.12.16 Doreen Grandma - 20/17, 27.3 
 Record lost owing to book being back at Bazentin le Petit, March 1917. 
 March 8 - Everlasting Mercy - 3.11 March 13 - Romance Z Chapel - 5.8, 9.7 April 4 - Girl and the Farm - 6.8, 16.3 April 13 - To Francis sent and order of "Yet Again" - 5/- 20 F. - 14.4 3.9 Credit - 18.1 1.0.0 16.3 3.9 
 Jake, in the back of his paybook shewed me one evening a long list of places he"d stayed one night or more at, since joining up. 
 Here goes to make one of my own.  Dec. 1916. 
 Sydney Melbourne Port Suez Cairo Ghezireh Abassiah Ghezireh Helliopolis Alexandria Marseille Mosset [ ?] Boulogne Wimereax Abbeville [indecipherable] Vignicourt Merricourt Buire Longueval - 1 Flers - 1 Longueval - 1 Buire Albert Byzantin le Petit - Flers   ? No. 2 Relay -Flers  ? No. 1 Relay - Flers  ? Factory Corner - Flers  ? Edwards Post - Flers  ? Byzantin le Petit - Flers   ? Becaudles Aveluy Wood, N.E. Senlis Buire Aveluy, Chateau of Rothschild Byzantin le Petit Bapaume Velu - 3 La Bushequeire - 3 The Fields - 3 Hermies - 3 Bapaume Pozieres Meaulte (Train) Pozieres Embankment near Hindenburg line Noreiul Veulx Beaulincourt Pozieres 