 [Page 27] 
 Date Aug 24th at 8.30am.  70 N.C.O.'s and men baked 38,120 rations. 
 Aug 25th 4 men proceeded on leave and 2 rejoined from leave. 70 N.C.O.'s and men baked 31,260 rations 
 Aug 26th Strength:  1 Off 87 O.Ranks not including 4 in hospital and 8 on leave. 47 N.C.O.'s and men baked 20930 rations. 
 Aug 27th 1 Rejoined from hospital 70 N.C.O.'s and men baked 37,782 rations. 
 Aug 28th  1 Rejoined from leave to U.K.  1 rejoined from hospital 70 N.C.O.'s and men baked 39,040 rations. 
 Aug 29th 70 N.C.O.'s and men baked 38,418 rations. 
 Aug 30th 70 N.C.O.'s and men baked 38,460 rations 
