 [Page 30] 
 Date 5/9/17 70 N.C.O.'s and men baked 46,170 rations 
 6/9/17 4 men "rejoined unit" from leave to U. Kingdom. 70 N.C.O.'s and men baked 46,190 rations. 
 7/9/17 1 Attachee evacuated to No. 1 Aust. Genl. Hpl. 70 N.C.O.'s and men baked 48,000 rations 
 8/9/17 1 man "rejoined unit" from hospital, France.  Strength: 1 officer 95 O. Ranks and 1 in hospital and 1 attachee in Hpl.  70 N.C.O.'s and men baked 39,060 rations 
 9/9/17 40 N.C.O.'s and men baked 21,600 rations 
 10/9/17 70 N.C.O.'s and men baked 32,280 rations 
 11/9/17 70 N.C.O.'s and men baked 32,020 rations 
 12/9/17 70 N.C.O.'s and men baked 38,620 rations 
