 [Page 35] 
 Date 9/10/17 and men baked 29,580 rations 
 10/10/17 69 N.C.O.'s and men baked 37,000 rations. 
 11/10/17 69 N.C.O.'s and men baked 28,160 rations 
 12/10/17 69  N.C.O.'s and men baked 25,784 rations 
 13/10/17 69 N.C.O.'s and men baked 33,420 rations 
 14/10/17 45 N.C.O.'s and men baked 25,360 rations 
 15/10/17 67 N.C.O.'s and men baked 38,790 rations 
 16/10/17 67  N.C.O.'s and men baked 38,400 rations 
 17/10/17 67 N.C.O.'s and men baked 34,000 rations   18/10/17 67 N.C.O.'s and men baked 31,840 rations 
 19/10/17 67 N.C.O.'s and men baked 23,020 rations 1 crime A.W.L. off pass from 10pm 19/10/17 to 8.30 pm 20/10/17 
 20/10/17 67 N.C.O.'s and men baked 31,680 rations 
 21/10/17 45 N.C.O.'s and men baked 26020 rations 
 Date 22/10/17 2 men evacuated to No. 1 A.G. Hpl 64 N.C.O.'s and men baked 31,720 rations 
 23/10/17 1 man evacuated to No. 1 Aus. Genl Hpl.  1 N.C.O. rejoined unit from Hospital.  The men of the 6am to 2pm and 10pm till 6am shift and all details and staff were medically inspected for skin diseases.  64 N.C.O.'s and men baked 32,012 rations. 
 24/10/17 64 N.C.O.'s and men baked 32,100 rations.  2pm till 10pm shift medically inspected. 
 25/10/17 1 man rejoined unit from No. 1 Aus. Gen. Hpl.  64 N.C.O.'s and men baked 31,612 rations. 
 26/10/17 1 main rejoined unit from Hpl.  64 N.C.O.'s and men baked 23010 rations 
 27/10/17 1 man rejoined unit from Hpl.  64 N.C.O.'s and men baked 31,810 rations 
 28/10/17 43 N.C.O.'s and men baked 25,600 rations 
 29/10/17 64 N.C.O.'s and men baked 40080 rations 
 30/10/17 64 N.C.O.'s and men baked 40020 rations 
