  
 LIST OF GERMANS WHO HAVE TAKEN OATH OF NEUTRALITY: 
 
 
 
  Name  
  Occupation  
  Remarks  
 
 
 Hornung Hermann 
 Planter - Rabaul 
   
 
 
 Annacker Fritz 
 Merchant - Rabaul 
   
 
 
 Metzger Adolph 
 Planter - Rabaul 
   
 
 
 Paatzsch Ernest 
 Merchant - Matupi 
   
 
 
 Timm Gotthold 
 Planter - Kabanga 
   
 
 
 Koster Paul 
 Planter - Rabaul 
   
 
 
 Kempf Alfred 
 Planter - Rabaul 
   
 
 
 Ruf Willy 
 Photographer - Rabaul 
   
 
 
 Kleinhanns - Georg 
 Merchant - Rabaul 
   
 
 
 Richter Rudolph 
 ditto 
   
 
 
 Phillipps Otto 
 Planter - Rabaul 
   
 
 
 Beierling Willy 
 Merchant - Rabaul 
   
 
 
 Janke Georg 
 Planter - Baining 
   
 
 
 Zielske Reinhold 
 Merchant - Rabaul 
   
 
 
 Schemberg Hellmuth 
 ditto 
   
 
 
 Heer Bernhard 
 Engineer - Herbertsh&ouml;he 
   
 
 
 
   