  
 Fritz Darchy 2378 9 Battn 13 Co 3 Bgd 
 Ruth Billila Mildura 23/9 
 Mrs Porter 1 Easton Gardens Cliftonville Rd Belfast 
 Mab. Shotley Gate Suffolk 22/7- 2/8 -10/8 -29/8 -15/9 -20/9 -4/10- 15/11-11/12-9/1/19 -3/2 -23/2 -13/3 Mrs M 5 Lindfield Gardens, Hampstead London N.W 31 Withersfield 14/8 31/8 Mr Bramton Essex 23/9 -10/10-10/12-13/1/19 Aunt. S. 4 Newton Rd 30/6-16/7 -22/7-2/8/14/8 -22/8  Bayswater W.2. 2/9- 4/10 -18/10 -27/11- 12/12- 13/1/19- 23/2 13/3 Mrs Richmond Kippenross Dumblane Perthshire 15/12/18 