<p>a6578068.html</p>
<p>1003</p>
<p>FRIDAY, FEBRUARY 21, 1919.</p>
<p>Fine. Round town all day</p>
<p>&amp; went to the aniversary</p>
<p>of the &quot;Lilac Domino at night</p>
<p>&amp; it is still as good as</p>
<p>ever. Ivy Shilling made</p>
<p>her first appearance in it.</p>