<p>a6578184.html</p>
<p>TUESDAY, JUNE 17, 1919.</p>
<p>Fine, but cold &amp; bleak. Marking lambs</p>
<p>at Boundary Yards all day.</p>
<p>Marked 192 or 47% in Boundary</p>
<p>and 184 or 75% in Mountain.</p>
<p>Jack Fogarty was out to look at</p>
<p>the burning off in Wheelers.</p>