<p>a6578114.html</p>
<p>1049</p>
<p>TUESDAY, APRIL 8, 1919.</p>
<p>Fine &amp; windy but calm sea. On</p>
<p>deck reading all day. We were</p>
<p>sprayed &amp; innoculated, &amp; have</p>
<p>to be every day till we</p>
<p>reach Sydney</p>
<p>Days run 239 miles</p>