<p>a6578106.html</p>
<p><s>MONDAY</s>&nbsp;<sup>Saturday,</sup> MARCH&nbsp;<s>31</s>&nbsp;<sup>29</sup>, 1919.</p>
<p>1039</p>
<p><s>31</s>&nbsp;29</p>
<p>Fine, but cloudy &amp; cold. Playing</p>
<p>games &amp; reading all day. Had</p>
<p>a concert on boat deck at</p>
<p>night. I played &quot;Pontoon&quot;</p>
<p>Days run 332 miles</p>