<p>a6578381.html</p>
<p>WEDNESDAY, DECEMBER 31, 1919.</p>
<p>Fine &amp; hot. Lopped in Middle</p>
<p>&amp;&nbsp;<s>Top</s>&nbsp;Mountain paddocks</p>
<p>&amp; went down to Sydney</p>
<p>in evening.</p>