<p>a6578320.html</p>
<p>FRIDAY, OCTOBER 31, 1919.</p>
<p>Fine &amp; hot. Got the sheep I left in the</p>
<p>Point &amp; put them in 4D. Tickle</p>
<p>&amp; I lopped in Middle paddock</p>
<p>&amp; then fixing Middle paddock</p>
<p>mill.</p>