 a6578103.html 
 1040 
  FRIDAY &nbsp; Sunday , MARCH&nbsp; 28 &nbsp; 30 , 1919. 
  28 &nbsp;30 
 Fine but cloudy with a very heavy 
 wind &amp; choppy sea. I was 
 on guard, but its not a bad 
 job. Played cards&nbsp;at 
 night. 
 Days run 315 miles 