  
 14 May 18. 
 Experiments on telepathy Agent OL.S. Holt            -                   Percipient V. Hall 1) 3 objects Spec case, pay book,  pocket book  -   Spec case  -   success                       2) 6 objects         -                         black pocket case - success 3. 6 objects         -                         chain mail          -      failure 4. 2 objects           -                          dixie               -          failure 5 2 objects           -                           pot of jam         -       failure 6. 4 objects          -                          black handled knife      -  failure 7 3 objects          -                          box of matches   -       failure 
