 [Page 11] 
 No. 13 Platoon Lieut Weston, PH. 
 945 Sgt M. McKever J &ndash; Wounded 800 Cpl Davey A.C.  1440 " Richards A Coy Clerk Hos   1169 Pte Miller A. St. Bearer 1435 " Zines JM   " 1155 "  Collings F  B[Bomb] Thrower Hos 111a Cpl Gillings G 1766 Pte Gilbertson F Hos 861 " Roberts C  B Thrower 896 " White A.H. Mule Escort 870 " Talbot G  "  " 1775 " Pashby ST. Pioneer. Hos 1911 " Filbet C.  " Hos 1968 " Rigg JS  " 771 " Anderson H 1957 " Brown W.G. 1156 " Craig W  Hos 1014 " Kitson J  Cook 854 " Ohrer L  M Gunner 879 " Welham F.C.  "  " 
