  
 Proffit Statement for month of January 1919.  Pris of War Canteen 
 To wages pay Military -  124.0.0.  157.11. (Canteen) -   33.11.0. Railway freight (December) -   3.4.7. Cartage -   27.2.6. Sundry expences -  38.6.1. 243.18.6. Garrison Institute -  17.14.6.  953.9.6. 
 Proffit & Loss Apropriation A/c 
 January 31 Hire for Snell -  2.10.0 January Hire Piano -   6.0.0. Divident 5/Internees -  1156.0.0. Invalids -  100.0.0. Camp Garden ectra -   40.0.0. Filmhire to Dec. 28th -   25.0.0. German Theater -   11.16.4 Rationes -   156.0.0 Divident 5/Internees -  50.0.0.  2783.0.8. 
 By Gross profitt as per tracking Abstract -   819.10.5. Comission -   85.14.6. Discounts - 33.6.3. Austrian Theater -  14.8.7. Profit Decem - 953.9.6. 
 1918 By Balance   2073.9.6. 1919 January 31 Proffit & Loss -   709.11.2 2785.0.8. 