  
 Ma'adi 
                Usual                        early 
 500 - reveille -          6am     -          5am 5.30 - Parade -     6.30am     -     5.30 7.30 - Finish     -     7.30am     -     7.30 7.45 -     B'kfst     -     8.00am     -     7.45 8.30 -     Parade -     9.15am     -     8.30 11.00 -     Off -          12.00 noon -     10.30 Nil -     Leave     -     5 pm     -     5.00 6.30 -     Tea     -     5.15pm     -     5.30 9.30 -     First Post -     9.30     - 100 -     Last Post -     10.00     - 1015 -     Lights Out -     10.15     - Tel El Kebir (arrow to "Last Post" 
 1st/9th Manchesters 126 Brigade.  42nd div. 