  
 Sheepskins    -  186 Materials    -        35.5.13- Food        -         295.16.11 Tobacco        -   105.0.9 Rubber      -       226.8.0 Tooth brushes. soap - 17.14.0 Cabled to Egypt  -91.0.0 Stationery    -       16.11.0 Handkerchiefs   -  21.4.0 Cases        -          25.10.0 Parcel stamps    -  21.10.0 Containers     -        7.1.0 War Chest      -     15 
 Pipes            -              1384.11.2      -               40.  0.0             -             1424.11.2 
 [Transcribed by Rex Minter for the State Library of New South Wales] 
 