 a6680024.html 
 1918   January 
 17 THUR  Blowing hard 
 Snowing  Writing at 
 night. 
 18 FRI  Fine day. Went to Au 
 Progres in aft. Had tres bon 
 time. 
 19 SAT  Home 7.am. Posted 
 letter to L Berry & enc. 
 for W.T.B.  fine day. 
 Quiet night 