  
 July 1917 
 F 13 Arrived Durban 6 PM 
 M 16 Left Durban 12.30 PM 
 Th 19 Arrived Capetown about 5 PM 
 S 21  Arrived Capetown  Landed S 22 Landed M 23 Landed Tu 24 Landed 
 F 27 Left Capetown 1 PM 