  
 Lieut. HW Fry 
 UR 212     28th 
 Reference your inquiry of 22nd Incl. 
 Herewith report of Company Commander for your information 
 13th Battalion              A.W Davis 12 noon                      13th Battalion 
