  
 29/3/18 London 
 2/4/18 Folkestone 
 2/4/18 Boulogne to St Martin 
 11/4/18 Watten 
 13/4/18 Caestre via Borre 
 15/4/18 Pernois 
 17/4/18 Berteaucourt 
 17/4/18 Halloy 
 18/4/18 Romescamp via Amiens 
 19/4/18 Abbeville 
 20/4/18 Wimmereux 
 22/4/18 Wimmille - Wimmereux 
 5/5/18 Boulogne 
 6/5/18 Paris 
 7/5/18 Havre (AGBD) 
 10/5/18 AIBD 
 16/5/18 Rouelles 
 21/5/18 Havre 
 25/5/18 Pernois 
 28/8/18 Berteaucourt & Vignacourt 