  
 [See image for original layout of table] 
 Date - Route Arrival - Av. Spd. - distance - Date - Coal - Oil - Brt. Forward - - 123292 - - 11865 - 928 Oct. 3- Rabaul - Suva 12/10/14 - - 2199.6 - Oct 16 - 1672 - 170 Oct 17 - Suva . Samoa . Suva 23/10/1914 - - 1322.7 - Oct 23 - 1041 - - - - Oct 27 - 142 Oct 26 - Suva Cruising 31/10/14 - - 965.4 - Oct 31 - 830 Nov 3 - do do 7/11/14 - 9.9 - 800.9 - Nov 11 - 720 Nov 8 - do . Fanning I. 14/11/14 - 11.7 - 1870.3 - Nov 14 - 1380 Nov 14 - Fanning I . Chamela B. Mexico 26/11/14 - 11.5 - 3168.3 Nov 27 - Chamela B . Galapagos Dec 3 - 11.9 - 1601.1 - Nov 27 - 2520 Dec 4 -  Galapagos cruising . Pinas B Dec 10 - 9.3 - 1158.2 - Dec 3 - 1224 - 130 Dec 10 - Pinas B - Panama Dec 11 - 11.0 - 241.5 - Dec 12 - 1350 - Panama - Pinas B. Dec 14 - Pinas B . Callao - Dec 18 - 12.8 - 1352.2 Dec 19 - Callao - San Felix . Valpar. Dec 26 - 12.7 2015.2 Dec 27 - Valparaiso - Magellan Straits - Dec 31 - 14.2 - 1523.6 - Dec 27 - 2309 1915 Jan 1 - Magellan - P. Stanley Jan 3 - - - 1900 Jan 5 - P. Stanley - Abrolhos - - - 1496 - S. Vincent Jan 19 - - - 1426 - 235 - - - - - 29,875 - 1472 
