 [Page 127] 
 Paid right up yo Nove 30th 1914 
 Amount drawn since Nov 30th 1914 - &pound;16.0.0 (17.7.15) 
 Balance   to be drawn  owing up to 17th July 1915 &pound;68.6.0 
 Drew &pound; 2.0.0 Sept 14th 1915 Drew &pound; 2.10.0 Oct 11th 1915 Drew   11/5 Oct 16th 1915 Canteen Stores Drew &pound; 2.10.0 Oct 28th 1915 Canteen Stores Drew  3/5 Nov 6th 1915 Canteen Stores Drew &pound;2.0.0 Nov 26th 1915 Drew  13/4 Dec 8th 1915 Canteen Stores 