 [Page 83] 
 Mails From 
 Posted &ndash; Recd. &ndash; Pstd. &ndash; Recd. Eva  - 25/6/15 &ndash; 9/8/15 Kitty &ndash; 4/7/15 &ndash; 13/8/15 &ndash; 15/7 &ndash; 8/9 Morie &ndash; 30/6/15 &ndash; 13/8/15 Tom &ndash; 9/7/15 &ndash; 13/8/15 &ndash; 3/8 &ndash; 16/8 Carrie - - 13/8/15 Kitty &ndash; 11/7/15 &ndash; 13/8/15 Kitty &ndash; 30/6/15 &ndash; 14/8/15 Courtney &ndash; 29/6/15 &ndash; 14/8/15 &ndash; 15/8 &ndash; 21/9 Bearup &ndash; 4/7/15 &ndash; 14/8/15 Wilkins &ndash; 1/7/15 &ndash; 14/8/15 Horsey &ndash; 15/8/15 &ndash; 8/9/15 10th Mary &ndash; 21/7 &ndash; 8/9/15 Mother &ndash; 15/7 &ndash; 8/9/15 MacD. E. &ndash; 15/8 &ndash; 8/9/15 B. Earle S. &ndash; 18/8 &ndash; 10/9/15 &ndash; 1 &amp; 8/9 &ndash; 25/9 Sanders &ndash; Aug 1 &ndash; 16/9 Purcell &ndash; July 30 &ndash; 16/9 Sep. 16 Sullivan &ndash; 27/7 &ndash; 16/9 
 See Check Book 