 [Page 88] 
 Photoes Sent, Kitty, July 12th, Nurses home G1, Guard Room G2, Main Grotto Z1 &amp; Z2 &amp; Punts Z3, Mess Rooms A1 &amp; Interior A2, Group Trucks A3 
 Photoes sent to Eva, July 12, A1, A2, G1, G2, Z1, Z2, Z3 
 Mrs. Sanders, 12/7/15, A1, G1, Z1, Z3 
 Photoes, Kitty, 19/7/15, 1, 2, 3, 4, 6, 7, 8, Eva, 1, 2, 4, 6, 7, 8, Photoes taken 11/7/15, Flora &amp; Eileen, E. Sanders 
 25th/7, Kitty one of myself taken Mess Rooms 29/7/15. 