  
 fall of snow. Bakehouse 40 Deg. Flour 42 Deg 1st Round finished at 6.45a.m. Temperature of water 110 Deg. 2nd, 3rd, 4th and 5th rounds finished at    6.45a.m  , 8.15, 9.15, 10.15 and 11.15 a.m. respectively with the temperature of water reduced to 108 Deg. 70 N.C.O's and men baked 38080 lb rations. 
 9/1/18. 70 N.C.O's and men baked 38400 lb rations. Temperature was much lower, viz. Bakehouse 37 Deg at 6.30a.m. Flour 33 Deg. Water 112 Deg. 
 10/1/18. 70 N.C.O's and men baked 38400 lb rations. Temperature at 6.30 a.m. 44 Deg in Bakehouse. Flour 44. Water 108. 
 11/1/18. 1 man rejoined unit from leave to U.K., and 1 man rejoined from hospital. 70 N.C.O's and men baked 38600 lb rations. Temperature Milder, Bakehouse 62 Deg. Mean Temp. 57 Deg. Flour 54. Water 108 Deg. 
 12/1/18. 1 man evacuated to hospital 
