  
 Temp. B. 62. Fl. 60. W. 104 to 102. M. 56. Air-raid alarm Darnebal and Gare du Nord, Ref Appendix No. 3. 
 30/5/18. 90 N.CO's and men baked 55940 lb rations. Temp.' 61 Bkse. Fl. 58. W. 104 to 100. M. 55. 1 man rejoined unit from hospital. 
 31-5-18. 90 NCO's and men baked 56520 lb rations. Temp. Bkse. 65. F 58. W. 104 to 96. M. 60. Air raid alarm. Ref appendix 3. 
  Note  All temperatures taken at 7a.m. 
