 [Page 38] 
 &nbsp;&nbsp;&nbsp;&nbsp;&nbsp; Aug &nbsp;&nbsp;&nbsp;&nbsp;&nbsp; 18th-19th  -&nbsp;&nbsp;&nbsp;&nbsp;&nbsp;  24 (240)&nbsp;&nbsp;&nbsp;&nbsp;&nbsp;-   247   -&nbsp;&nbsp;&nbsp;&nbsp;&nbsp;  2563&nbsp;&nbsp;&nbsp;&nbsp;&nbsp;-&nbsp;&nbsp;&nbsp;&nbsp;&nbsp; 10.7 &nbsp;&nbsp;&nbsp;&nbsp;&nbsp; 19th-20th   -&nbsp;&nbsp;&nbsp;&nbsp;&nbsp; 24&nbsp;&nbsp;&nbsp;&nbsp;&nbsp;-&nbsp;&nbsp;&nbsp;&nbsp;&nbsp;&nbsp;&nbsp;&nbsp;&nbsp;&nbsp;  201&nbsp;&nbsp;&nbsp;&nbsp;&nbsp;  -   2764   -&nbsp;&nbsp;&nbsp;&nbsp;&nbsp;    10 &nbsp;&nbsp;&nbsp;&nbsp;&nbsp; 20th-21st   -&nbsp;&nbsp;&nbsp;&nbsp;&nbsp;  24&nbsp;&nbsp;&nbsp;&nbsp;&nbsp;&nbsp;&nbsp;&nbsp;&nbsp;&nbsp;&nbsp;&nbsp;&nbsp;&nbsp;&nbsp;    207&nbsp;&nbsp;&nbsp;&nbsp;&nbsp;&nbsp;&nbsp;&nbsp;&nbsp;&nbsp;2971&nbsp;&nbsp;&nbsp;&nbsp;&nbsp;&nbsp;&nbsp;&nbsp;&nbsp;&nbsp;  10 &nbsp;&nbsp;&nbsp;&nbsp;&nbsp; 21st-22nd -&nbsp;&nbsp;&nbsp;&nbsp;&nbsp;&nbsp;&nbsp;&nbsp;&nbsp;&nbsp;&nbsp;&nbsp;&nbsp;&nbsp;&nbsp;8am in Fremantle &nbsp;&nbsp;&nbsp;&nbsp;&nbsp; 5pm 22nd -Leave Port &nbsp;&nbsp;&nbsp;&nbsp;&nbsp; 22nd-23rd  -&nbsp;&nbsp;&nbsp;&nbsp;&nbsp;  19&nbsp;&nbsp;&nbsp;&nbsp;&nbsp;&nbsp;&nbsp;&nbsp;&nbsp;&nbsp;&nbsp;&nbsp;&nbsp;&nbsp;&nbsp;    223&nbsp;&nbsp;&nbsp;&nbsp;&nbsp;&nbsp;&nbsp;&nbsp;&nbsp;&nbsp;  223&nbsp;&nbsp;&nbsp;&nbsp;&nbsp;&nbsp;&nbsp;&nbsp;&nbsp;&nbsp;   12.3 &nbsp;&nbsp;&nbsp;&nbsp;&nbsp; 23rd-24th  -&nbsp;&nbsp;&nbsp;&nbsp;&nbsp;43&nbsp;&nbsp;&nbsp;&nbsp;&nbsp;&nbsp;&nbsp;&nbsp;&nbsp;&nbsp;&nbsp;&nbsp;&nbsp;&nbsp;&nbsp;    270 
 24th-25th  -&nbsp;&nbsp;&nbsp;&nbsp;&nbsp;&nbsp;&nbsp;&nbsp;&nbsp;&nbsp;67&nbsp;&nbsp;&nbsp;&nbsp;&nbsp;&nbsp;&nbsp;&nbsp;&nbsp;&nbsp;&nbsp;&nbsp;&nbsp;&nbsp;&nbsp; 282 &nbsp;&nbsp;&nbsp;&nbsp;&nbsp; 25th-26th  -&nbsp;&nbsp;&nbsp;&nbsp;&nbsp;&nbsp;&nbsp;&nbsp;&nbsp;&nbsp;91&nbsp;&nbsp;&nbsp;&nbsp;&nbsp;&nbsp;&nbsp;&nbsp;&nbsp;&nbsp;&nbsp;&nbsp;&nbsp;&nbsp;&nbsp; 281 &nbsp;&nbsp;&nbsp;&nbsp;&nbsp; 27th &ndash; 12.20pm   -115&nbsp;&nbsp;&nbsp;&nbsp;&nbsp;&nbsp;&nbsp;&nbsp;&nbsp;&nbsp;    284&nbsp;&nbsp;&nbsp;&nbsp;&nbsp;&nbsp;&nbsp;&nbsp;&nbsp;&nbsp;&nbsp;&nbsp;&nbsp;&nbsp;&nbsp;&nbsp;&nbsp;&nbsp;&nbsp;&nbsp;  Arrive Adelaide &nbsp;&nbsp;&nbsp;&nbsp;&nbsp; 5pm - 27th-12-28th -139&nbsp;&nbsp;&nbsp;&nbsp;&nbsp;&nbsp;&nbsp;&nbsp;&nbsp;&nbsp; 233 28th-29th -&nbsp;&nbsp;&nbsp;&nbsp;&nbsp;Arrive Melbourne Heads 7 am. Pt  Melb-11.30 am 
