  
 Le Bizet Parade State To Noon 6-2-18 
 [See image for layout of table.] Actually with Unit - Absent - With Leave - Without leave - Sick - Detached - Total Strength - Establishment - Wanting to Complete - Attached - Ration Strength Off. - N.C.Os - O/R - Off. - N.C.Os - O/R - Off. - N.C.Os - O/R - Off. - N.C.Os - O/R - Off. - N.C.Os - O/R - Off. - N.C.Os - O/R - Off. - N.C.Os - O/R - Off. - N.C.Os. - O/R - Off. - N.C.Os - O/R - Off. - N.C.Os - O/R 9 - 14 - 127 - 2 - 3 - 13 - 0 - 0 - 1 - 0 - 0 - 9 - 2 - 3 - 5 - 13 - 20 - 155 - 10 - 20 - 155 - 0 - 0 - 0 - 0 - 0 - 2 - 9 - 14 - 129 
 Lieut. F. Thompson proceeded on leave. Weekly inspection of Transport took place on the 3rd.  Report received today stating that everything was correct. Concentration of fire, Nil.  Two thousand rounds fired on the following targets:- Ceylon Farm, C.6.c.90.05., Traversing & Searching of Road, C.5.d.77.38 to 86.60., Junction of Trenches, C.11.d.65.56., Traversing & Searching Road to Deulemont C.12.c.00.40 to 37.30., Working Party C.11.d.30.50.  Observed from O.P. flash lights.  No movement seen after fire was directed against them. Both enemy's Artillery and Machine guns were very quiet throughout day and night.  Weather dull, slight rain, but observation good. Concentration of fire during day, Nil. 
 Reference Sheet Houplines, part of Sheet 36. 