
[
[
	{
	top-54: [341417/340956", 338038/335123", 345619/367968", 367937/367129", 351625/349271", 351625/349276", 351625/349149", 298908/293865", 314368/358435", 351625/349354", 182203/264046", 314444/343389", 351625/349178", 351625/349288", 351625/349372", 314368/358355", 351625/349343", 298992/289345", 367918/365984", 314444/343562", 367937/367139", 298973/286585", 351625/349332", 272586/270279", 314368/358447", 325200/329613", 332981/331549", 298939/297794", 115160/171612", 325185/322702"]
	}
]
]
