  
 Head = 9 lbs. Body = 9 lbs. + 1/2 tail Tail = 1/2 Body 
 Let x lbs. = tail 9 lbs. + 1/2 x lbs. body 9 lbs. head 
 2 x = 9 + 1/2 x 
 2 x - 1/2 x = 9 
 11/2 x = 9 x = 6 
 tail = 6 body = 12 head = 9  = 27 
