[{"pageImage": " a3368", "pageUrl": "100312"},
{"pageImage": " a3363", "pageUrl": "100307"},
{"pageImage": " a3380", "pageUrl": "100324"},
{"pageImage": " a3380", "pageUrl": "100324"},
{"pageImage": " a3446", "pageUrl": "100325"},
{"pageImage": " a3365", "pageUrl": "100309"},
{"pageImage": " a3363", "pageUrl": "100307"},
{"pageImage": " a3446", "pageUrl": "100325"},
{"pageImage": " a3364", "pageUrl": "100308"},
{"pageImage": " a3378", "pageUrl": "100322"},
{"pageImage": " a3374", "pageUrl": "100318"},
{"pageImage": " a3367", "pageUrl": "100311"},
{"pageImage": " a3358", "pageUrl": "100302"},
{"pageImage": " a3362", "pageUrl": "100306"},
{"pageImage": " a3369", "pageUrl": "100313"},
{"pageImage": " a3366", "pageUrl": "100310"},
{"pageImage": " a3371", "pageUrl": "100315"},
{"pageImage": " a3375", "pageUrl": "100319"},
{"pageImage": " a3377", "pageUrl": "100321"},
{"pageImage": " a3372", "pageUrl": "100316"},
{"pageImage": " a3360", "pageUrl": "100304"},
{"pageImage": " a3448", "pageUrl": "100327"},
{"pageImage": " a3373", "pageUrl": "100317"},
{"pageImage": " a3370", "pageUrl": "100314"},
{"pageImage": " a3447", "pageUrl": "100326"},
{"pageImage": " a3379", "pageUrl": "100323"},
{"pageImage": " a3376", "pageUrl": "100320"},
{"pageImage": " a3359", "pageUrl": "100303"},
{"pageImage": " a6369", "pageUrl": "100395"},
{"pageImage": " a6372", "pageUrl": "100396"},
{"pageImage": " a5851", "pageUrl": "100382"},
{"pageImage": " a5731", "pageUrl": "100371"},
{"pageImage": " a5852", "pageUrl": "100383"},
{"pageImage": " a5853", "pageUrl": "100384"},
{"pageImage": " a5854", "pageUrl": "100385"},
{"pageImage": " a5730", "pageUrl": "115137"},
{"pageImage": " a2552", "pageUrl": "100275"},
{"pageImage": " a3314", "pageUrl": "100301"},
{"pageImage": " a6470", "pageUrl": "100404"},
{"pageImage": " a2557", "pageUrl": "100280"},
{"pageImage": " a2564", "pageUrl": "100287"},
{"pageImage": " a2562", "pageUrl": "100285"},
{"pageImage": " a2559", "pageUrl": "100282"},
{"pageImage": " a2554", "pageUrl": "100277"},
{"pageImage": " a2553", "pageUrl": "100276"},
{"pageImage": " a7172", "pageUrl": "100411"},
{"pageImage": " a2560", "pageUrl": "100283"},
{"pageImage": " a5300", "pageUrl": "100360"},
{"pageImage": " a2556", "pageUrl": "100279"},
{"pageImage": " a2555", "pageUrl": "100278"},
{"pageImage": " a5301", "pageUrl": "100361"},
{"pageImage": " a9494", "pageUrl": "182325"},
{"pageImage": " a5299", "pageUrl": "100359"},
{"pageImage": " a3863", "pageUrl": "100331"},
{"pageImage": " a5676", "pageUrl": "100367"},
{"pageImage": " a3867", "pageUrl": "100334"},
{"pageImage": " a3862", "pageUrl": "100330"},
{"pageImage": " a3864", "pageUrl": "100332"},
{"pageImage": " a3868", "pageUrl": "100335"},
{"pageImage": " a5986", "pageUrl": "100388"},
{"pageImage": " a2739", "pageUrl": "100292"},
{"pageImage": " a6373", "pageUrl": "100397"},
{"pageImage": " a2737", "pageUrl": "100290"},
{"pageImage": " a2738", "pageUrl": "100291"},
{"pageImage": " a5633", "pageUrl": "100365"},
{"pageImage": " a5634", "pageUrl": "100366"},
{"pageImage": " a4630", "pageUrl": "100350"},
{"pageImage": " a3960", "pageUrl": "100344"},
{"pageImage": " a5328", "pageUrl": "100362"},
{"pageImage": " a3958", "pageUrl": "100342"},
{"pageImage": " a4969", "pageUrl": "100358"},
{"pageImage": " a3959", "pageUrl": "100343"},
{"pageImage": " a3957", "pageUrl": "100341"},
{"pageImage": " a2826", "pageUrl": "100295"},
{"pageImage": " a5464", "pageUrl": "100364"},
{"pageImage": " a5738", "pageUrl": "100372"},
{"pageImage": " a5463", "pageUrl": "100363"},
{"pageImage": " a5842", "pageUrl": "100380"},
{"pageImage": " a5839", "pageUrl": "100377"},
{"pageImage": " a5840", "pageUrl": "100378"},
{"pageImage": " a6565", "pageUrl": "100405"},
{"pageImage": " a5841", "pageUrl": "100379"},
{"pageImage": " a2567", "pageUrl": "100288"},
{"pageImage": " a5987", "pageUrl": "100389"},
{"pageImage": " a3925", "pageUrl": "100337"},
{"pageImage": " a5770", "pageUrl": "100375"},
{"pageImage": " a6059", "pageUrl": "100390"},
{"pageImage": " a3926", "pageUrl": "100338"},
{"pageImage": " a6375", "pageUrl": "100398"},
{"pageImage": " a2568", "pageUrl": "100289"},
{"pageImage": " a5843", "pageUrl": "100381"},
{"pageImage": " a5769", "pageUrl": "100374"},
{"pageImage": " a5771", "pageUrl": "100376"},
{"pageImage": " a5678", "pageUrl": "100368"},
{"pageImage": " a3901", "pageUrl": "100336"},
{"pageImage": " a5983", "pageUrl": "100387"},
{"pageImage": " a5767", "pageUrl": "100373"},
{"pageImage": " a4714", "pageUrl": "100351"},
{"pageImage": " a6399", "pageUrl": "100401"},
{"pageImage": " a6400", "pageUrl": "100402"},
{"pageImage": " a6401", "pageUrl": "100403"},
{"pageImage": " a5877", "pageUrl": "100386"},
{"pageImage": " a6397", "pageUrl": "100399"},
{"pageImage": " a6398", "pageUrl": "100400"},
{"pageImage": " a5692", "pageUrl": "100370"},
{"pageImage": " a3545", "pageUrl": "100328"},
{"pageImage": " a4891", "pageUrl": "100356"},
{"pageImage": " a5691", "pageUrl": "100369"},
{"pageImage": " a6301", "pageUrl": "100394"},
{"pageImage": " a4892", "pageUrl": "100357"},
{"pageImage": " a6178", "pageUrl": "100391"},
{"pageImage": " a3927", "pageUrl": "100339"},
{"pageImage": " a3565", "pageUrl": "100329"},
{"pageImage": " a4745", "pageUrl": "100352"},
{"pageImage": " a6179", "pageUrl": "100392"},
{"pageImage": " a4748", "pageUrl": "100355"},
{"pageImage": " a6702", "pageUrl": "100408"},
{"pageImage": " a4746", "pageUrl": "100353"},
{"pageImage": " a4747", "pageUrl": "100354"},
{"pageImage": " a6703", "pageUrl": "100409"},
{"pageImage": " a6201", "pageUrl": "100393"},
{"pageImage": " a6701", "pageUrl": "100407"},
{"pageImage": " a6719", "pageUrl": "100410"},
{"pageImage": " a3148", "pageUrl": "100299"},
{"pageImage": " a3149", "pageUrl": "100300"},
{"pageImage": " a6699", "pageUrl": "100406"},
{"pageImage": " a4032", "pageUrl": "100346"},
{"pageImage": " a4033", "pageUrl": "100347"},
{"pageImage": " a4031", "pageUrl": "100345"},
{"pageImage": " a3955", "pageUrl": "100340"},
{"pageImage": " a4391", "pageUrl": "100349"}]
