 a6490161.html 
 Em m elieme 
 ___ 
 Louise _ Tres Beau 
 ___&nbsp;&nbsp;&nbsp;&nbsp;&nbsp;&nbsp;&nbsp;&nbsp;&nbsp; ====== 
 Hermoine 
 ___ 
 Either a vais vous une belle bete.&nbsp; Gabriel je suit un con contin 
 ----------&nbsp;&nbsp; &quot;&nbsp;&nbsp; ----------&nbsp;&nbsp; &quot;&nbsp;&nbsp; ---------- 
 Norman Davidson 
 28 Hutchinson St 
 Moore Park. &#39;Sydney&#39; 
 &nbsp; 
