 [Page 32] 
 Lieut.&nbsp;&nbsp;&nbsp;&nbsp;&nbsp;   A.W.K. Farquhar - 6th A.L.H. Regt - 21.1.18   "&nbsp;&nbsp;&nbsp;&nbsp;&nbsp;   H.A. Letch M.C.  - 2nd   A.L.H. Rgt. -&nbsp;&nbsp;&nbsp;&nbsp;&nbsp;22.1.18   "&nbsp;&nbsp;&nbsp;&nbsp;&nbsp;   F.C. Hawley - 4th Bn. I.C.C. - 23.1.18  Lieut.  R.A. Camm &ndash; 4th B.I.C.C. -  23.1.18 2/Lieut  E.A. Mulford D.C.M. - 12th A.L.H. Rgt. -  22.1.18    "&nbsp;&nbsp;&nbsp;&nbsp;&nbsp;  J. McElligott- 11th  A.L.h. Rgt. - 22.1.18    " &nbsp;&nbsp;&nbsp;&nbsp;&nbsp;  L.J. Kreig &ndash; 11th A.L.H. Rgt. - &nbsp;&nbsp;&nbsp;&nbsp;&nbsp;22.1.18 
 APPOINTMENTS, PROMOTIONS, ETC. 
 2/Lieut.   C.N. Watt - A.F.C. - To be Lieutenant - 10.10.17   "&nbsp;&nbsp;&nbsp;&nbsp;&nbsp;    P.A. &nbsp;&nbsp;&nbsp;&nbsp;&nbsp;McBain  - A.F.C. &ndash;To be lieutenant - 5.12.17   "&nbsp;&nbsp;&nbsp;&nbsp;&nbsp;    F. Hancock &ndash; A.F.C.  &ndash; To be lieutenant - 22.10.17   "&nbsp;&nbsp;&nbsp;&nbsp;&nbsp;&nbsp;&nbsp;&nbsp;&nbsp;&nbsp;   L.W. Taplin &ndash; A.F.C. &ndash; To be lieutenant - 29.12.17   "  &nbsp;&nbsp;&nbsp;&nbsp;&nbsp;   S.A. Nunan &ndash; A.F.C. &ndash; To be lieutenant -    1.  1.18    " &nbsp;&nbsp;&nbsp;&nbsp;&nbsp;   G.L.F. Rutledge A.F.C. &ndash; To be lieutenant - 20.12.17    "&nbsp;&nbsp;&nbsp;&nbsp;&nbsp;   L.F. Kraig (Att'd) - 11th A.L.H. Regt.  To be lieutenant - 20. 1.18 GRADUATIONS. 
 Lieut.&nbsp;&nbsp;&nbsp;&nbsp;&nbsp;E.B.S. Beaton,  11th A.L.H. Rgt.  Graded as Qualified Observer - 25.1.19 
 CASUALTIES. Lieut.&nbsp;&nbsp;&nbsp;&nbsp;&nbsp;J.D.S. Pott - A.F.C. - Missing, unofficially reported Killed. - 4.1.18 
 2/Lieut. V.J.  Parkinson - Missing, unofficially reported Prisoner of war - 4.1.18 Lieut.&nbsp;&nbsp;&nbsp;&nbsp;&nbsp;G. Finlay &ndash; Wounded -10.1.18 
 Lieut.&nbsp;&nbsp;&nbsp;&nbsp;&nbsp;F. Hancock - Prisoner of War- 20.1.18 
 2/Lieut, A.A. Poole - Prisoner of War&nbsp;&nbsp;&nbsp;&nbsp;&nbsp;- 20.1.18 
 2/Lieut. H.S.R. Maughan &ndash; Wounded - 13.12.17 
 HONOURS AND AWARDS. 
 A.F.C.  Capt.&nbsp;&nbsp;&nbsp;&nbsp;&nbsp;  A.W.L. Ellis - Awarded Military Cross - 1. 1.18 2/Lieut. J.V. Tunbridge &ndash; Awarded Military Cross &ndash; 1.1.18 Aus/105.Flt. Sgt.  Robertson R.S. -  Awarded Meritorious Service Medal &ndash; 1.1.18l Aus/332   Flt. Sgt. Johnston H. &ndash; Awarded Meritorious Service Medal &ndash; 1.1.18&nbsp;&nbsp;&nbsp;&nbsp;&nbsp; Aus/296 Sgt. Horsecroft L. &ndash; Awarded Meritorious Service Medal -   1. 1.18 Major &nbsp;&nbsp;&nbsp;&nbsp;&nbsp;E. Williams  D.S.C. -  Mentioned in despatches - 28. 6.17 Capt.  &nbsp;&nbsp;&nbsp;&nbsp;&nbsp;A.W.E. Ellis, M.C. &ndash; Mentioned in despatches - 28. 6.17 Capt.    A.M. Jones, M.C. -  Mentioned in despatches - 28. 6.17 Lieut.   V.F. Turner &ndash; Mentioned in despatches - 28. 6.17 Aus/332  Flt. Sgt. Johnston, H. &ndash; Mentioned in despatches - 28. 6.17 Aus/105  "&nbsp;&nbsp;&nbsp;&nbsp;&nbsp;&nbsp;&nbsp;&nbsp;&nbsp;&nbsp;   Robertson R.S. &ndash; Mentioned in despatches - 28. 6.17 
 ATTACHED Lieut. &nbsp;&nbsp;&nbsp;&nbsp;&nbsp;H.A. Letch - 2nd. A.L.H. Rgt. - Awarded Military Cross - 1. 1.18    "&nbsp;&nbsp;&nbsp;&nbsp;&nbsp;O.M. Lee - 4th Bn. I.C.C. -  Mentioned in Despatches - 28. 6.17 