<p>a6490046.html</p>
<p><s>xxxxxxxx</s></p>
<p>The pubs with beer</p>
<p>will be flowing</p>
<p>And we&#39;ll sit &amp;</p>
<p>guzzle at ease</p>
<p>And our wounds to</p>
<p>the girls be showing</p>
<p>Us blokes who came</p>
<p>overseas</p>
<p>&nbsp;</p>
<p>We&#39;ll then reap what</p>
<p>we&#39;ve been sowing</p>
<p><s>Whill</s> While we helped</p>
<p>beat Bill to his kknees</p>
