<p>a6490006.html</p>
<p>Anne Davis 18 Fortress Rd - Kentish Town, N.W.</p>
<p>----------&nbsp;&nbsp; &quot;&nbsp;&nbsp; ----------&nbsp;&nbsp; &quot;&nbsp;&nbsp; ----------</p>
<p>Marjorie Greenhill 238 Parchmore Rd Thornton Heath. Surrey.</p>
<p>(La Belle Fille)</p>
<p>----------&nbsp;&nbsp; &quot;&nbsp;&nbsp; ----------&nbsp;&nbsp; &quot;&nbsp;&nbsp; ----------</p>
<p>Bertha Dolling 36 Landcroft Rd. E.Dulwich S. East London</p>
<p>----------&nbsp;&nbsp; &quot;&nbsp;&nbsp; ----------&nbsp;&nbsp; &quot;&nbsp;&nbsp; ----------</p>
<p>Laural Yule: C/o David Jones Lmtd George St. Sydney.</p>
<p>----------&nbsp;&nbsp; &quot;&nbsp;&nbsp; ----------</p>
<p>Belle Fille</p>
