  
  9th A.M. G Coy     No 44  Intelligence report from 6am 7/2/17 to 6am 8/2/17 Indirect fire was carried out:  Gun at C 28 d 6/8  on 1) CROSS ROADS at L'AVENTURE C30c and 2) BRUNE RUE I 5 d 5/8. 1000 rds between 5 & 7pm  FRY PAN Gun at C22a  75/10 on 1) BRUNE RUE Rd C29c 80/60 2) TROLLEY TRACK C24a 70/10 3) L'AVENTURE Rd C23d 80/10 to C30c 90/90. 1000 rounds  Gun (SS88) at C16d 15/40  on 1) CROSS ROADS Fme du Gde VERQUIN C12 b 90/60. 2) LIENART Fme Dump C 18 b 80/50. 3) CROSS ROADS C18d 60/50. 1000 rds between 7 & 9pm  one gun fired throughout the night on gaps cut in enemy's wire at 1) C29a 75/80 2) C29a 60/50 3) C29a 40/30 Indirect fire also carried out between 10pm & 6am by  Gun at C 22 a 93/60  on ROADS in FRELINGHEIN as follows: 1) C 11 c 80/90 to C11a 99/20 2) C11c 85/80 3) C11d 30/20 to C11d 55/55 4) C11c 90/40 to C11d 30/20 5) C11c 65/85 6) C11d 23/65. Visibility too poor for daylight firing. Very quiet during day & night, normal machine gun activity by enemy on our parapets & communication trenches. Wind East. Light, poor during morning but bright during afternoon. Frost continues 
 D. Whitehead Lieut 9th. MG C 
