  
 No. - Rank - Name - Age - Occupation - Rel. - M or S - Next of Kin 
 1732 - L/Cpl. - Harrison A.C. - 22 - Clerk - C/E - S - (Father) H. Harrison, 24 Ebden St., Elsternwick - Anzac 1878 - L/Cpl. - Anderson F. - 26 - Tanner - Meth. - S - (Mother) Mrs. A. Anderson, 61 Tannery Cresc., Abbotsford - Anzac 548 - Pte. - Adams J.A. - 34 - Laborer - C/E - M - (Wife) Mrs. Ruby Adams, Dandenong Rd., Cheltenham - Anzac 546 - Pte. - Aubrey G.V. - 29 - Laborer - C/E - S - (Mother) Mrs. A.J. Aubrey, Gormandale P.O, Gipps. - Anzac 764 - Pte. - Allsopp H. - 28 - Sleeper-Cutter - Pres. - S - (Mother) Mrs. Allsopp, Rutherglen - Anzac 1198 - Pte. - Avenell W. - 30 - Laborer - C/E - M - (Wife) Mrs. M. Avenell, 45 Ferrier Av., Toronto, Canada - Anzac 4005 - Pte. - Amiet P.A. - 34 - Farmer - Pres. - W - (Sister) Mrs. Mitchell, Greensborough 3753 - Pte. - Adair J. - 30 - Storeman - Pres. - S - (Sister) Miss E. Adair, 25 Dundonald Rd., Kelvinside, Glasgow 3757 - Pte. - Armstrong S.A. - 21 - Driver - R.C. - S - (Father) Mr. Armstrong, C/o Mrs. Henry, Wellington Rd., Spring Vale 2018 - Pte. - Anderson E. - 23 - Tailor's Presser - Meth. - S - (Mother) Mrs. A. Anderson, Tannery Cres., Abbotsford - Anzac 
