  
 - Formation - - in - - Convoy - 
 Between transports 1/2 mile Between divisions 1 mile Warships 2 miles out Length of Convoy 5 1/2 to 6 miles 
 H.M.AS. "Melbourne" 
 Sub Flagship - Convoy Flagship - Sub Flagship HMAS Sydney -  2 miles - Wiltshire - Orvieto - Euripides A18 - A3 - A14 Medic - Southern - Argyllshire A7 - A27 - A8 Ascanius - Pera - Shropshire A11 - A4 - A9 Star of England - Armadale - Afric A15 - A26 - A19 Geelong - Saldanha - Benalla A2 - A12 - A24  Port Lincoln - Katuna - Rangatira  A17 - A13 - A22 Karroo - Hymettus - Star of Victoria A10 - A1 - A16 
 Marere - Suffolk - Hororata A21 - A23 - A20 Clan MacCorquodale - Anglo Egyptian - Omrah A6 - A25 - A5 
 Limerick - - - Miltiades - - - - A28 
 Waimana - - - NZ Flagship Maunganui 
 - - - - Tahiti - - - - Athenic - - - - Ruapehu - - - - Orari 
 - HIJM Ibuki - 2 miles 
 2 miles astern HMS Minnetaur 
